sku,websites,store,has_options,type,attribute_set,config_attributes,categories,name,image,small_image,thumbnail,status,visibility,weight,description,short_description,qty,is_in_stock,color,size,price,associated,tax_class_id
sk1,base,1,0,simple,powerwear,"Color,Size",PowerWear,BABY RACING BODY-Orange-L,,,,Enabled,Catalog,0,"What the next generation is wearing in the new racing season: Long-sleeve romper suit in latest Gravity-FX style with easy-entry, press-stud fastener. ","What the next generation is wearing in the new racing season: Long-sleeve romper suit in latest Gravity-FX style with easy-entry, press-stud fastener. ",10,1,Orange,L,3999,,0
sk2,base,1,0,simple,powerwear,"Color,Size",PowerWear,BABY RACING BODY-Orange-M,,,,Enabled,Catalog,0,"What the next generation is wearing in the new racing season: Long-sleeve romper suit in latest Gravity-FX style with easy-entry, press-stud fastener. ","What the next generation is wearing in the new racing season: Long-sleeve romper suit in latest Gravity-FX style with easy-entry, press-stud fastener. ",10,1,Orange,M,3999,,0
sk3,base,1,0,simple,powerwear,"Color,Size",PowerWear,BABY RACING BODY-Orange-S,,,,Enabled,Catalog,0,"What the next generation is wearing in the new racing season: Long-sleeve romper suit in latest Gravity-FX style with easy-entry, press-stud fastener. ","What the next generation is wearing in the new racing season: Long-sleeve romper suit in latest Gravity-FX style with easy-entry, press-stud fastener. ",10,1,Orange,S,3999,,0
sk4,base,1,0,simple,powerwear,"Color,Size",PowerWear,BABY RACING BODY-Orange-XL,,,,Enabled,Catalog,0,"What the next generation is wearing in the new racing season: Long-sleeve romper suit in latest Gravity-FX style with easy-entry, press-stud fastener. ","What the next generation is wearing in the new racing season: Long-sleeve romper suit in latest Gravity-FX style with easy-entry, press-stud fastener. ",10,1,Orange,XL,3999,,0
sk5,base,1,0,simple,powerwear,"Color,Size",PowerWear,BABY RACING BODY-Orange-XXL,,,,Enabled,Catalog,0,"What the next generation is wearing in the new racing season: Long-sleeve romper suit in latest Gravity-FX style with easy-entry, press-stud fastener. ","What the next generation is wearing in the new racing season: Long-sleeve romper suit in latest Gravity-FX style with easy-entry, press-stud fastener. ",10,1,Orange,XXL,3999,,0
ujjalsk0,base,1,1,configurable,powerwear,"Color,Size",PowerWear,BABY RACING BODY-Orange-import,baby_racing_body.jpg,baby_racing_body.jpg,baby_racing_body.jpg,Enabled,"Catalog, Search",0,"What the next generation is wearing in the new racing season: Long-sleeve romper suit in latest Gravity-FX style with easy-entry, press-stud fastener. ","What the next generation is wearing in the new racing season: Long-sleeve romper suit in latest Gravity-FX style with easy-entry, press-stud fastener. ",10,1,,,3999,"sk1,sk2,sk3,sk4,sk5",0
